…
This example also makes use of the ability to map non-required
aesthetics. The fill is mapped to angle.

``` r
lcd(-180, 180, n_mol = 1000, return_df = T, seed=1) %>%
  print() %>% # view dataframe
  ggplot(aes(x, y, angle=angle, length=length, width=width))+
  geom_lc(aes(fill=angle))+
  coord_fixed()+
  scale_fill_gradient2()
#> # A tibble: 1,000 x 5
#>        x        y  width length angle
#>    <dbl>    <dbl>  <dbl>  <dbl> <dbl>
#>  1 0.612 0.000605 0.0143   0.05 -180 
#>  2 0.442 0.00103  0.0143   0.05 -180.
#>  3 0.912 0.00136  0.0143   0.05 -179.
#>  4 0.141 0.00164  0.0143   0.05 -179.
#>  5 0.839 0.00202  0.0143   0.05 -179.
#>  6 0.956 0.00330  0.0143   0.05 -178.
#>  7 0.480 0.00471  0.0143   0.05 -178.
#>  8 0.935 0.00573  0.0143   0.05 -177.
#>  9 0.894 0.00596  0.0143   0.05 -177.
#> 10 0.925 0.00730  0.0143   0.05 -177.
#> # ... with 990 more rows
```
…
